…
set.seed(388588)
sharesIndex <- createDataPartition(sel_data$shares, p = 0.7, list = FALSE)
train <- sel_data[sharesIndex, ]
test <- sel_data[-sharesIndex, ]
train
```

    ## # A tibble: 4,941 x 23
    ##    class_shares shares log.shares dayweek kw_avg_avg LDA_00 LDA_01 LDA_02 LDA_03 LDA_04 weekday_is_monday weekday_is_tuesday
    ##           <dbl>  <dbl>      <dbl>   <dbl>      <dbl>  <dbl>  <dbl>  <dbl>  <dbl>  <dbl>             <dbl>              <dbl>
    ##  1            0    593       6.39       1         0  0.500  0.378  0.0400 0.0413 0.0401                 1                  0
    ##  2            0   1200       7.09       1         0  0.0286 0.419  0.495  0.0289 0.0286                 1                  0
    ##  3            1   2100       7.65       1         0  0.0334 0.0345 0.215  0.684  0.0333                 1                  0
    ##  4            0   1200       7.09       1         0  0.126  0.0203 0.0200 0.814  0.0200                 1                  0
    ##  5            0   1200       7.09       1         0  0.0240 0.665  0.0225 0.266  0.0223                 1                  0
    ##  6            0    631       6.45       1         0  0.456  0.482  0.0200 0.0213 0.0200                 1                  0
    ##  7            0   1300       7.17       2      1114. 0.0500 0.525  0.324  0.0510 0.0500                 0                  1
    ##  8            1   6400       8.76       3       849. 0.0400 0.840  0.0400 0.0404 0.0400                 0                  0
    ##  9            0   1100       7.00       3       935. 0.0400 0.0418 0.258  0.620  0.0400                 0                  0
    ## 10            1   1500       7.31       3       827. 0.0333 0.677  0.0333 0.223  0.0335                 0                  0
    ## # ... with 4,931 more rows, and 11 more variables: weekday_is_wednesday <dbl>, weekday_is_thursday <dbl>,
    ## #   weekday_is_friday <dbl>, weekday_is_saturday <dbl>, weekday_is_sunday <dbl>, self_reference_avg_sharess <dbl>,
    ## #   average_token_length <dbl>, n_tokens_content <dbl>, n_tokens_title <dbl>, global_subjectivity <dbl>, num_imgs <dbl>
…
``` r
#train1$dayweek <- as.factor(train1$dayweek)
#test1$dayweek <- as.factor(test1$dayweek)
train1$dayweek <- cut(train1$dayweek, 7, c("Monday", "Tuesday", "Wednesday", "Thursday", "Friday", "Saturday", "Sunday"))
test1$dayweek <- cut(test1$dayweek, 7, c("Monday", "Tuesday", "Wednesday", "Thursday", "Friday", "Saturday", "Sunday"))
preProcValues <- preProcess(train1, method = c("center", "scale"))
trainTransformed1 <- predict(preProcValues, train1)
testTransformed1 <- predict(preProcValues, test1)
trainTransformed1
```

    ## # A tibble: 4,941 x 10
    ##    log.shares dayweek   kw_avg_avg LDA_02 self_reference_av~ average_token_le~ n_tokens_content n_tokens_title global_subjecti~
    ##         <dbl> <fct>          <dbl>  <dbl>              <dbl>             <dbl>            <dbl>          <dbl>            <dbl>
    ##  1   -0.989   Monday         -3.20 -0.375             -0.421           0.257             -0.728         0.465             0.615
    ##  2   -0.234   Monday         -3.20  3.07              -0.467          -0.0744            -0.139        -0.978            -0.194
    ##  3    0.366   Monday         -3.20  0.952              0.123           0.0649            -0.776         1.43             -0.497
    ##  4   -0.234   Monday         -3.20 -0.527              0.307          -0.0160            -0.838         0.465             1.06 
    ##  5   -0.234   Monday         -3.20 -0.508             -0.345           0.710             -0.808         0.465             1.08 
    ##  6   -0.923   Monday         -3.20 -0.527             -0.270           0.00623           -0.470        -2.90             -0.140
    ##  7   -0.148   Tuesday        -2.07  1.78              -0.378           0.171             -0.611        -0.0160           -0.156
    ##  8    1.56    Wednesday      -2.34 -0.375             -0.215           0.462             -0.687        -2.42              0.585
    ##  9   -0.327   Wednesday      -2.25  1.28              -0.467           0.404             -0.483        -0.0160           -0.110
    ## 10    0.00540 Wednesday      -2.36 -0.426             -0.295          -0.0352            -0.265         0.946            -0.228
    ## # ... with 4,931 more rows, and 1 more variable: num_imgs <dbl>
…
``` r
train2 <- train %>% select(-class_shares, -shares, -dayweek, -LDA_00, -LDA_01, -LDA_03, -LDA_04)
test2 <- test %>% select(-class_shares, -shares, -dayweek, -LDA_00, -LDA_01, -LDA_03, -LDA_04)
preProcValues2 <- preProcess(train2, method = c("center", "scale"))
trainTransformed2 <- predict(preProcValues2, train2)
testTransformed2 <- predict(preProcValues2, test2)
trainTransformed2
```

    ## # A tibble: 4,941 x 16
    ##    log.shares kw_avg_avg LDA_02 weekday_is_monday weekday_is_tuesday weekday_is_wednesday weekday_is_thursday weekday_is_friday
    ##         <dbl>      <dbl>  <dbl>             <dbl>              <dbl>                <dbl>               <dbl>             <dbl>
    ##  1   -0.989        -3.20 -0.375             2.02              -0.475               -0.472              -0.459            -0.393
    ##  2   -0.234        -3.20  3.07              2.02              -0.475               -0.472              -0.459            -0.393
    ##  3    0.366        -3.20  0.952             2.02              -0.475               -0.472              -0.459            -0.393
    ##  4   -0.234        -3.20 -0.527             2.02              -0.475               -0.472              -0.459            -0.393
    ##  5   -0.234        -3.20 -0.508             2.02              -0.475               -0.472              -0.459            -0.393
    ##  6   -0.923        -3.20 -0.527             2.02              -0.475               -0.472              -0.459            -0.393
    ##  7   -0.148        -2.07  1.78             -0.494              2.10                -0.472              -0.459            -0.393
    ##  8    1.56         -2.34 -0.375            -0.494             -0.475                2.12               -0.459            -0.393
    ##  9   -0.327        -2.25  1.28             -0.494             -0.475                2.12               -0.459            -0.393
    ## 10    0.00540      -2.36 -0.426            -0.494             -0.475                2.12               -0.459            -0.393
    ## # ... with 4,931 more rows, and 8 more variables: weekday_is_saturday <dbl>, weekday_is_sunday <dbl>,
    ## #   self_reference_avg_sharess <dbl>, average_token_length <dbl>, n_tokens_content <dbl>, n_tokens_title <dbl>,
    ## #   global_subjectivity <dbl>, num_imgs <dbl>
…
