…
set.seed(388588)
sharesIndex <- createDataPartition(sel_data$shares, p = 0.7, list = FALSE)
train <- sel_data[sharesIndex, ]
test <- sel_data[-sharesIndex, ]
train
```

    ## # A tibble: 1,628 x 23
    ##    class_shares shares log.shares dayweek kw_avg_avg LDA_00 LDA_01 LDA_02 LDA_03 LDA_04 weekday_is_monday weekday_is_tuesday
    ##           <dbl>  <dbl>      <dbl>   <dbl>      <dbl>  <dbl>  <dbl>  <dbl>  <dbl>  <dbl>             <dbl>              <dbl>
    ##  1            1   2600       7.86       1         0  0.439  0.0225 0.0224 0.0233 0.493                  1                  0
    ##  2            0    690       6.54       1         0  0.199  0.248  0.0201 0.513  0.0202                 1                  0
    ##  3            1   4800       8.48       1         0  0.0298 0.194  0.0288 0.718  0.0293                 1                  0
    ##  4            0    851       6.75       1         0  0.0355 0.0338 0.0336 0.863  0.0341                 1                  0
    ##  5            1   4800       8.48       3       832. 0.0231 0.0223 0.0224 0.910  0.0226                 0                  0
    ##  6            1   9200       9.13       3      1072. 0.0356 0.0334 0.619  0.0337 0.279                  0                  0
    ##  7            1   1600       7.38       3      1564. 0.865  0.0334 0.0336 0.0347 0.0336                 0                  0
    ##  8            0    775       6.65       4      1862. 0.509  0.0287 0.0299 0.404  0.0286                 0                  0
    ##  9            1  18200       9.81       5      2210. 0.800  0.0500 0.0502 0.0501 0.0500                 0                  0
    ## 10            1   1600       7.38       5      1398. 0.189  0.0250 0.319  0.0254 0.441                  0                  0
    ## # ... with 1,618 more rows, and 11 more variables: weekday_is_wednesday <dbl>, weekday_is_thursday <dbl>,
    ## #   weekday_is_friday <dbl>, weekday_is_saturday <dbl>, weekday_is_sunday <dbl>, self_reference_avg_sharess <dbl>,
    ## #   average_token_length <dbl>, n_tokens_content <dbl>, n_tokens_title <dbl>, global_subjectivity <dbl>, num_imgs <dbl>
…
``` r
#train1$dayweek <- as.factor(train1$dayweek)
#test1$dayweek <- as.factor(test1$dayweek)
train1$dayweek <- cut(train1$dayweek, 7, c("Monday", "Tuesday", "Wednesday", "Thursday", "Friday", "Saturday", "Sunday"))
test1$dayweek <- cut(test1$dayweek, 7, c("Monday", "Tuesday", "Wednesday", "Thursday", "Friday", "Saturday", "Sunday"))
preProcValues <- preProcess(train1, method = c("center", "scale"))
trainTransformed1 <- predict(preProcValues, train1)
testTransformed1 <- predict(preProcValues, test1)
trainTransformed1
```

    ## # A tibble: 1,628 x 10
    ##    log.shares dayweek   kw_avg_avg LDA_02 self_reference_av~ average_token_le~ n_tokens_content n_tokens_title global_subjecti~
    ##         <dbl> <fct>          <dbl>  <dbl>              <dbl>             <dbl>            <dbl>          <dbl>            <dbl>
    ##  1      0.103 Monday        -2.17  -0.753            -0.257            0.00414           -0.641         -0.771          -0.633 
    ##  2     -1.53  Monday        -2.17  -0.762            -0.178           -0.513             -0.711         -0.771           0.660 
    ##  3      0.857 Monday        -2.17  -0.725            -0.217           -0.620              1.10          -0.294          -0.548 
    ##  4     -1.27  Monday        -2.17  -0.704            -0.219            0.393              0.907          0.182           0.399 
    ##  5      0.857 Wednesday     -1.62  -0.753            -0.0763           0.107             -0.801         -0.294           1.89  
    ##  6      1.66  Wednesday     -1.46   1.82             -0.256           -0.476             -0.923         -0.294          -1.29  
    ##  7     -0.494 Wednesday     -1.13  -0.704            -0.238           -0.0110             1.76           0.182          -0.0642
    ##  8     -1.39  Thursday      -0.926 -0.720            -0.193            0.391             -0.173         -1.25            1.47  
    ##  9      2.50  Friday        -0.692 -0.633             0.0663          -0.977             -0.460         -0.771           0.471 
    ## 10     -0.494 Friday        -1.24   0.529            -0.264            1.93              -0.460         -1.72            0.349 
    ## # ... with 1,618 more rows, and 1 more variable: num_imgs <dbl>
…
``` r
train2 <- train %>% select(-class_shares, -shares, -dayweek, -LDA_00, -LDA_01, -LDA_03, -LDA_04)
test2 <- test %>% select(-class_shares, -shares, -dayweek, -LDA_00, -LDA_01, -LDA_03, -LDA_04)
preProcValues2 <- preProcess(train2, method = c("center", "scale"))
trainTransformed2 <- predict(preProcValues2, train2)
testTransformed2 <- predict(preProcValues2, test2)
trainTransformed2
```

    ## # A tibble: 1,628 x 16
    ##    log.shares kw_avg_avg LDA_02 weekday_is_monday weekday_is_tuesday weekday_is_wednesday weekday_is_thursday weekday_is_friday
    ##         <dbl>      <dbl>  <dbl>             <dbl>              <dbl>                <dbl>               <dbl>             <dbl>
    ##  1      0.103     -2.17  -0.753             2.45              -0.496               -0.472              -0.501            -0.403
    ##  2     -1.53      -2.17  -0.762             2.45              -0.496               -0.472              -0.501            -0.403
    ##  3      0.857     -2.17  -0.725             2.45              -0.496               -0.472              -0.501            -0.403
    ##  4     -1.27      -2.17  -0.704             2.45              -0.496               -0.472              -0.501            -0.403
    ##  5      0.857     -1.62  -0.753            -0.408             -0.496                2.12               -0.501            -0.403
    ##  6      1.66      -1.46   1.82             -0.408             -0.496                2.12               -0.501            -0.403
    ##  7     -0.494     -1.13  -0.704            -0.408             -0.496                2.12               -0.501            -0.403
    ##  8     -1.39      -0.926 -0.720            -0.408             -0.496               -0.472               1.99             -0.403
    ##  9      2.50      -0.692 -0.633            -0.408             -0.496               -0.472              -0.501             2.48 
    ## 10     -0.494     -1.24   0.529            -0.408             -0.496               -0.472              -0.501             2.48 
    ## # ... with 1,618 more rows, and 8 more variables: weekday_is_saturday <dbl>, weekday_is_sunday <dbl>,
    ## #   self_reference_avg_sharess <dbl>, average_token_length <dbl>, n_tokens_content <dbl>, n_tokens_title <dbl>,
    ## #   global_subjectivity <dbl>, num_imgs <dbl>
…
