…
set.seed(388588)
sharesIndex <- createDataPartition(sel_data$shares, p = 0.7, list = FALSE)
train <- sel_data[sharesIndex, ]
test <- sel_data[-sharesIndex, ]
train
```

    ## # A tibble: 5,900 x 23
    ##    class_shares shares log.shares dayweek kw_avg_avg LDA_00 LDA_01 LDA_02 LDA_03 LDA_04 weekday_is_monday weekday_is_tuesday
    ##           <dbl>  <dbl>      <dbl>   <dbl>      <dbl>  <dbl>  <dbl>  <dbl>  <dbl>  <dbl>             <dbl>              <dbl>
    ##  1            0    710       6.57       1         0  0.0400 0.0400  0.840 0.0400 0.0400                 1                  0
    ##  2            1   2200       7.70       1         0  0.0250 0.287   0.401 0.262  0.0250                 1                  0
    ##  3            1   1600       7.38       1         0  0.0333 0.0333  0.867 0.0333 0.0333                 1                  0
    ##  4            1   1500       7.31       1         0  0.0333 0.0333  0.700 0.200  0.0333                 1                  0
    ##  5            1   1800       7.50       1         0  0.0400 0.0400  0.840 0.0400 0.0400                 1                  0
    ##  6            0   1200       7.09       1         0  0.0286 0.0287  0.485 0.0286 0.429                  1                  0
    ##  7            0    495       6.20       1         0  0.0333 0.0333  0.702 0.198  0.0333                 1                  0
    ##  8            0    755       6.63       2       804. 0.0338 0.0344  0.862 0.0334 0.0365                 0                  1
    ##  9            0    468       6.15       2       728. 0.0333 0.0333  0.700 0.200  0.0333                 0                  1
    ## 10            1   1400       7.24       3      1047. 0.0200 0.0203  0.602 0.0201 0.337                  0                  0
    ## # ... with 5,890 more rows, and 11 more variables: weekday_is_wednesday <dbl>, weekday_is_thursday <dbl>,
    ## #   weekday_is_friday <dbl>, weekday_is_saturday <dbl>, weekday_is_sunday <dbl>, self_reference_avg_sharess <dbl>,
    ## #   average_token_length <dbl>, n_tokens_content <dbl>, n_tokens_title <dbl>, global_subjectivity <dbl>, num_imgs <dbl>
…
``` r
#train1$dayweek <- as.factor(train1$dayweek)
#test1$dayweek <- as.factor(test1$dayweek)
train1$dayweek <- cut(train1$dayweek, 7, c("Monday", "Tuesday", "Wednesday", "Thursday", "Friday", "Saturday", "Sunday"))
test1$dayweek <- cut(test1$dayweek, 7, c("Monday", "Tuesday", "Wednesday", "Thursday", "Friday", "Saturday", "Sunday"))
preProcValues <- preProcess(train1, method = c("center", "scale"))
trainTransformed1 <- predict(preProcValues, train1)
testTransformed1 <- predict(preProcValues, test1)
trainTransformed1
```

    ## # A tibble: 5,900 x 10
    ##    log.shares dayweek   kw_avg_avg LDA_02 self_reference_av~ average_token_le~ n_tokens_content n_tokens_title global_subjecti~
    ##         <dbl> <fct>          <dbl>  <dbl>              <dbl>             <dbl>            <dbl>          <dbl>            <dbl>
    ##  1    -0.773  Monday         -2.86  0.810            -0.256             0.479            -0.860         -0.303          -0.835 
    ##  2     0.599  Monday         -2.86 -1.27             -0.256            -0.0753            1.50          -0.784           0.743 
    ##  3     0.213  Monday         -2.86  0.937            -0.256            -0.0725            0.187          0.659           0.660 
    ##  4     0.135  Monday         -2.86  0.147             0.786             0.166            -1.11           0.178          -0.0609
    ##  5     0.356  Monday         -2.86  0.810            -0.155             0.653            -0.660          0.178          -0.264 
    ##  6    -0.136  Monday         -2.86 -0.872            -0.256            -0.121            -0.470          0.178           1.52  
    ##  7    -1.21   Monday         -2.86  0.156            -0.256             0.388            -0.368         -0.784           0.160 
    ##  8    -0.698  Tuesday        -1.95  0.914            -0.0556           -0.352            -0.727          0.659           0.441 
    ##  9    -1.28   Tuesday        -2.03  0.147            -0.256             0.350            -0.435         -0.303          -0.558 
    ## 10     0.0510 Wednesday      -1.67 -0.317            -0.256            -0.621            -0.143          0.659          -0.148 
    ## # ... with 5,890 more rows, and 1 more variable: num_imgs <dbl>
…
``` r
train2 <- train %>% select(-class_shares, -shares, -dayweek, -LDA_00, -LDA_01, -LDA_03, -LDA_04)
test2 <- test %>% select(-class_shares, -shares, -dayweek, -LDA_00, -LDA_01, -LDA_03, -LDA_04)
preProcValues2 <- preProcess(train2, method = c("center", "scale"))
trainTransformed2 <- predict(preProcValues2, train2)
testTransformed2 <- predict(preProcValues2, test2)
trainTransformed2
```

    ## # A tibble: 5,900 x 16
    ##    log.shares kw_avg_avg LDA_02 weekday_is_monday weekday_is_tuesday weekday_is_wednesday weekday_is_thursday weekday_is_friday
    ##         <dbl>      <dbl>  <dbl>             <dbl>              <dbl>                <dbl>               <dbl>             <dbl>
    ##  1    -0.773       -2.86  0.810             2.25              -0.479               -0.477              -0.471            -0.421
    ##  2     0.599       -2.86 -1.27              2.25              -0.479               -0.477              -0.471            -0.421
    ##  3     0.213       -2.86  0.937             2.25              -0.479               -0.477              -0.471            -0.421
    ##  4     0.135       -2.86  0.147             2.25              -0.479               -0.477              -0.471            -0.421
    ##  5     0.356       -2.86  0.810             2.25              -0.479               -0.477              -0.471            -0.421
    ##  6    -0.136       -2.86 -0.872             2.25              -0.479               -0.477              -0.471            -0.421
    ##  7    -1.21        -2.86  0.156             2.25              -0.479               -0.477              -0.471            -0.421
    ##  8    -0.698       -1.95  0.914            -0.444              2.09                -0.477              -0.471            -0.421
    ##  9    -1.28        -2.03  0.147            -0.444              2.09                -0.477              -0.471            -0.421
    ## 10     0.0510      -1.67 -0.317            -0.444             -0.479                2.10               -0.471            -0.421
    ## # ... with 5,890 more rows, and 8 more variables: weekday_is_saturday <dbl>, weekday_is_sunday <dbl>,
    ## #   self_reference_avg_sharess <dbl>, average_token_length <dbl>, n_tokens_content <dbl>, n_tokens_title <dbl>,
    ## #   global_subjectivity <dbl>, num_imgs <dbl>
…
